{
    "ID": 4,
    "children": [
        {
            "ID": 5,
            "children": [],
            "entity": {
                "components": {
                    "DirectionalLightComponent": {
                        "ambientColor": {
                            "a": 1.0,
                            "b": 0.5,
                            "g": 1.0,
                            "r": 1.0
                        },
                        "diffuseColor": {
                            "a": 1.0,
                            "b": 0.5,
                            "g": 1.0,
                            "r": 1.0
                        },
                        "diffuseIntensity": -0.6000000238418579
                    },
                    "ModelComponent": {
                        "affectingStaticLights": [],
                        "isVisible": true,
                        "lodBias": 0.0,
                        "lodDistance": 10.0,
                        "lodEnable": true,
                        "materialOverrides": {
                            "rootex/assets/materials/default.basic.rmat": "game/assets/materials/cel_shaded.custom.rmat"
                        },
                        "renderPass": 1,
                        "resFile": "rootex/assets/cube.obj"
                    },
                    "TransformComponent": {
                        "boundingBox": {
                            "center": {
                                "x": 0.0,
                                "y": 0.0,
                                "z": 0.0
                            },
                            "extents": {
                                "x": 0.5,
                                "y": 0.5,
                                "z": 0.5
                            }
                        },
                        "overrideBoundingBox": false,
                        "passDown": 7,
                        "position": {
                            "x": -0.6012393236160278,
                            "y": -0.18609769642353058,
                            "z": -3.240000009536743
                        },
                        "rotation": {
                            "w": 0.9725596904754639,
                            "x": 0.23167577385902405,
                            "y": -0.02072485350072384,
                            "z": 0.004936923272907734
                        },
                        "scale": {
                            "x": 1.0,
                            "y": 1.0,
                            "z": 1.0000003576278687
                        }
                    }
                },
                "script": {
                    "overrides": {
                        "variable": ""
                    },
                    "path": "game/assets/scripts/cutom_material.lua"
                }
            },
            "importStyle": 0,
            "name": "Cube",
            "sceneFile": "",
            "settings": {
                "camera": 1,
                "inputSchemes": {},
                "listener": 1,
                "preloads": [],
                "startScheme": ""
            }
        }
    ],
    "entity": {
        "components": null,
        "script": null
    },
    "importStyle": 0,
    "name": "const_lua",
    "sceneFile": "game/assets/scenes/const_lua.scene.json",
    "settings": {
        "camera": 1,
        "inputSchemes": {},
        "listener": 1,
        "preloads": [],
        "startScheme": ""
    }
}